%YAML 1.1
%TAG !u! tag:unity3d.com,2011:
--- !u!114 &11400000
MonoBehaviour:
  m_ObjectHideFlags: 0
  m_CorrespondingSourceObject: {fileID: 0}
  m_PrefabInstance: {fileID: 0}
  m_PrefabAsset: {fileID: 0}
  m_GameObject: {fileID: 0}
  m_Enabled: 1
  m_EditorHideFlags: 0
  m_Script: {fileID: 11500000, guid: 848409ee8ba454f42a5ddff137688a27, type: 3}
  m_Name: ReferenceImageLibrary
  m_EditorClassIdentifier: 
  m_GuidLow: 4953930532769271323
  m_GuidHigh: 18351219171176644744
  m_Images:
  - m_SerializedGuid:
      m_GuidLow: 5462048891639278222
      m_GuidHigh: 659004212674404253
    m_SerializedTextureGuid:
      m_GuidLow: 0
      m_GuidHigh: 0
    m_Size: {x: 0, y: 0}
    m_SpecifySize: 0
    m_Name: 
    m_Texture: {fileID: 0}
